<?xml version="1.0" encoding="utf-8"?>
<!-- Generator: Adobe Illustrator 16.0.0, SVG Export Plug-In . SVG Version: 6.00 Build 0)  -->
<!DOCTYPE svg PUBLIC "-//W3C//DTD SVG 1.1//EN" "http://www.w3.org/Graphics/SVG/1.1/DTD/svg11.dtd">
<svg version="1.1" id="Layer_1" xmlns="http://www.w3.org/2000/svg" xmlns:xlink="http://www.w3.org/1999/xlink" x="0px" y="0px"
	 width="27.5px" height="36px" viewBox="0 0 27.5 36" enable-background="new 0 0 27.5 36" xml:space="preserve">
<polygon id="path0" fill="#FFFFFF" points="0.691,0.761 3.983,3.318 3.979,27.525 3.979,31.409 0.691,28.866 "/>
<polygon id="path1" fill="#FFFFFF" points="5.022,4.1 8.314,6.655 8.312,30.861 23.101,23.533 23.101,18.139 26.393,20.701 
	26.393,25.613 8.312,34.747 5.022,32.204 "/>
<polygon id="path2" fill="#FFFFFF" points="9.332,25.409 18.792,20.859 18.792,14.787 22.083,17.343 22.083,22.939 9.332,29.238 "/>
</svg>
